PT	PRR	high	low
"alpha hydroxybutyrate dehydrogenase increased"	1.277939	3.501680	0.466384
"gastrointestinal tract mucosal pigmentation"	1.205556	2.579828	0.563357
"angiotensin converting enzyme inhibitor foetopathy"	3.265845	9.333347	1.142756
"parathyroid haemorrhage"	1.503031	3.436539	0.657377
