PT	PRR	high	low
"multiple drug overdose accidental"	1.039985	1.229817	0.879455
"fibrous dysplasia of jaw"	1.101075	2.239713	0.541304
"gamma radiation therapy to brain"	1.420742	3.905112	0.516889
"false negative investigation result"	1.058726	2.597151	0.431589
"injection site dysaesthesia"	2.258615	6.320324	0.807133
"pseudoparalysis"	1.595761	3.955391	0.643793
"carboxyhaemoglobin increased"	1.034567	2.207763	0.484802
